{
	"machines": {
		"servers_per_port": {
			"type": "int",
			"default": "1",
			"description": "Swift num object server per port:",
			"roles": [ "swiftstore", "swiftproxy" ]
			},
		"network_chunk_size": {
			"type": "int",
			"default": "65535",
			"description": "Swift object network chunk size:",
			"roles": [ "swiftstore", "swiftproxy" ]
			},
		"disk_chunk_size": {
			"type": "int",
			"default": "524288",
			"description": "Swift object disk chunk size:",
			"roles": [ "swiftstore", "swiftproxy" ]
			},
		"lvm_backend_name": {
			"type": "string",
			"default": "LVM_1",
			"description": "LVM backend name:",
			"roles": [ "volume" ]
			},
		"availability_zone": {
			"type": "string",
			"default": "nova",
			"description": "Availability zone:",
			"roles": [ "volume" ]
			},
                "cpu_allocation_ratio": {
                        "type": "float",
                        "default": "16.0",
                        "description": "Virtual CPU to physical CPU allocation ratio:",
                        "roles": [ "compute" ]
                        },
                "ram_allocation_ratio": {
                        "type": "float",
                        "default": "1.5",
                        "description": "Virtual ram to physical ram allocation ratio:",
                        "roles": [ "compute" ]
                        },
                "disk_allocation_ratio": {
                        "type": "float",
                        "default": "1.0",
                        "description": "Virtual disk to physical disk allocation ratio:",
                        "roles": [ "compute" ]
                        }
		},
	"clusters": {
		"bgp_to_the_host": {
			"type": "boolean",
			"default": "no",
			"description": "Use ECMP unnumbered BGP to the host networking:"
		},
		"asn": {
			"type": "int",
			"default": "0",
			"description": "AS number:"
		}
	}
}
